<svg
        xmlns="http://www.w3.org/2000/svg"
        xmlns:xlink="http://www.w3.org/1999/xlink"
        width="6px" height="9px">
    <path fill-rule="evenodd"  fill="rgb(166, 166, 166)"
          d="M4.508,6.079 L4.476,6.047 L1.571,8.984 L0.142,7.540 L3.047,4.603 L-0.015,1.508 L1.492,-0.016 L6.015,4.555 L4.508,6.079 Z"/>
</svg>